@relation predicted_normalized_difference_vegetation_index_instances-weka.filters.unsupervised.attribute.Discretize-B10-M-1.0-R1-precision6-weka.filters.unsupervised.attribute.Discretize-Y-B9-M-1.0-R2-precision6-weka.filters.unsupervised.attribute.Discretize-Y-B13-M-1.0-R3-precision6-weka.filters.unsupervised.attribute.Discretize-Y-B7-M-1.0-R4-precision6-weka.filters.unsupervised.attribute.Discretize-Y-B10-M-1.0-R6-precision6-weka.filters.unsupervised.attribute.Discretize-Y-B10-M-1.0-R7-precision6

@attribute predicted_normalized_difference_vegetation_index {'\'(-inf-0.173091]\'','\'(0.173091-0.220128]\'','\'(0.220128-0.267164]\'','\'(0.267164-0.3142]\'','\'(0.3142-0.361237]\'','\'(0.361237-0.408273]\'','\'(0.408273-0.45531]\'','\'(0.45531-0.502346]\'','\'(0.502346-0.549383]\'','\'(0.549383-inf)\''}
@attribute water_volume {'\'B1of9\'','\'B2of9\'','\'B3of9\'','\'B4of9\'','\'B5of9\'','\'B6of9\'','\'B7of9\'','\'B8of9\'','\'B9of9\''}
@attribute elevation {'\'B1of13\'','\'B2of13\'','\'B3of13\'','\'B4of13\'','\'B5of13\'','\'B6of13\'','\'B7of13\'','\'B8of13\'','\'B9of13\'','\'B10of13\'','\'B11of13\'','\'B12of13\'','\'B13of13\''}
@attribute stream_order {'\'B1of7\'','\'B2of7\'','\'B3of7\'','\'B4of7\'','\'B5of7\'','\'B6of7\'','\'B7of7\''}
@attribute periodicity_type_of_riverine_water_flow {Continuous,Intermittent}
@attribute gbif3040237_habitat_use_probability {'\'B1of10\'','\'B2of10\'','\'B3of10\'','\'B4of10\'','\'B5of10\'','\'B6of10\'','\'B7of10\'','\'B8of10\'','\'B9of10\'','\'B10of10\''}
@attribute gbif2874700_habitat_use_probability {'\'B1of10\'','\'B2of10\'','\'B3of10\'','\'B4of10\'','\'B5of10\'','\'B6of10\'','\'B7of10\'','\'B8of10\'','\'B9of10\'','\'B10of10\''}

@data
'\'(-inf-0.173091]\'','\'B1of9\'','\'B12of13\'','\'B1of7\'',Intermittent,'\'B8of10\'','\'B3of10\''
'\'(-inf-0.173091]\'','\'B1of9\'','\'B12of13\'','\'B2of7\'',Intermittent,'\'B3of10\'','\'B1of10\''
'\'(0.408273-0.45531]\'','\'B1of9\'','\'B12of13\'','\'B1of7\'',Intermittent,'\'B10of10\'','\'B3of10\''
'\'(0.267164-0.3142]\'','\'B7of9\'','\'B12of13\'','\'B4of7\'',Continuous,'\'B10of10\'','\'B3of10\''
'\'(-inf-0.173091]\'','\'B1of9\'','\'B12of13\'','\'B1of7\'',Intermittent,'\'B10of10\'','\'B3of10\''
'\'(0.45531-0.502346]\'','\'B7of9\'','\'B12of13\'','\'B4of7\'',Continuous,'\'B10of10\'','\'B3of10\''
'\'(0.173091-0.220128]\'','\'B7of9\'','\'B12of13\'','\'B4of7\'',Continuous,'\'B5of10\'','\'B3of10\''
'\'(-inf-0.173091]\'','\'B7of9\'','\'B12of13\'','\'B4of7\'',Continuous,'\'B5of10\'','\'B5of10\''
'\'(0.173091-0.220128]\'','\'B7of9\'','\'B12of13\'','\'B4of7\'',Continuous,'\'B9of10\'','\'B5of10\''
'\'(-inf-0.173091]\'','\'B1of9\'','\'B12of13\'','\'B1of7\'',Intermittent,'\'B9of10\'','\'B5of10\''
'\'(0.220128-0.267164]\'','\'B7of9\'','\'B12of13\'','\'B4of7\'',Continuous,'\'B9of10\'','\'B5of10\''
'\'(0.361237-0.408273]\'','\'B1of9\'','\'B12of13\'','\'B1of7\'',Intermittent,'\'B9of10\'','\'B5of10\''
'\'(0.267164-0.3142]\'','\'B7of9\'','\'B12of13\'','\'B4of7\'',Continuous,'\'B10of10\'','\'B5of10\''
'\'(-inf-0.173091]\'','\'B7of9\'','\'B12of13\'','\'B4of7\'',Continuous,'\'B10of10\'','\'B5of10\''
'\'(-inf-0.173091]\'','\'B7of9\'','\'B12of13\'','\'B4of7\'',Continuous,'\'B10of10\'','\'B5of10\''
'\'(0.173091-0.220128]\'','\'B1of9\'','\'B12of13\'','\'B4of7\'',Intermittent,'\'B10of10\'','\'B5of10\''
'\'(0.220128-0.267164]\'','\'B1of9\'','\'B12of13\'','\'B4of7\'',Intermittent,'\'B10of10\'','\'B5of10\''
'\'(0.45531-0.502346]\'','\'B8of9\'','\'B12of13\'','\'B5of7\'',Continuous,'\'B10of10\'','\'B5of10\''
'\'(0.173091-0.220128]\'','\'B1of9\'','\'B11of13\'','\'B3of7\'',Intermittent,'\'B10of10\'','\'B5of10\''
'\'(0.3142-0.361237]\'','\'B8of9\'','\'B11of13\'','\'B5of7\'',Continuous,'\'B10of10\'','\'B5of10\''
'\'(0.408273-0.45531]\'','\'B8of9\'','\'B11of13\'','\'B5of7\'',Continuous,'\'B8of10\'','\'B5of10\''
'\'(0.408273-0.45531]\'','\'B1of9\'','\'B11of13\'','\'B1of7\'',Intermittent,'\'B9of10\'','\'B5of10\''
'\'(0.173091-0.220128]\'','\'B1of9\'','\'B11of13\'','\'B3of7\'',Intermittent,'\'B9of10\'','\'B5of10\''
'\'(0.267164-0.3142]\'','\'B8of9\'','\'B11of13\'','\'B5of7\'',Continuous,'\'B5of10\'','\'B5of10\''
'\'(0.3142-0.361237]\'','\'B8of9\'','\'B11of13\'','\'B5of7\'',Continuous,'\'B5of10\'','\'B5of10\''
'\'(-inf-0.173091]\'','\'B8of9\'','\'B11of13\'','\'B5of7\'',Continuous,'\'B5of10\'','\'B5of10\''
'\'(-inf-0.173091]\'','\'B8of9\'','\'B11of13\'','\'B5of7\'',Continuous,'\'B5of10\'','\'B5of10\''
'\'(-inf-0.173091]\'','\'B8of9\'','\'B11of13\'','\'B5of7\'',Continuous,'\'B5of10\'','\'B5of10\''
'\'(0.220128-0.267164]\'','\'B8of9\'','\'B11of13\'','\'B5of7\'',Continuous,'\'B5of10\'','\'B5of10\''
'\'(-inf-0.173091]\'','\'B8of9\'','\'B11of13\'','\'B5of7\'',Continuous,'\'B7of10\'','\'B5of10\''
'\'(0.361237-0.408273]\'','\'B1of9\'','\'B11of13\'','\'B1of7\'',Intermittent,'\'B5of10\'','\'B5of10\''
'\'(0.220128-0.267164]\'','\'B1of9\'','\'B11of13\'','\'B1of7\'',Intermittent,'\'B5of10\'','\'B5of10\''
'\'(0.220128-0.267164]\'','\'B8of9\'','\'B11of13\'','\'B5of7\'',Continuous,'\'B5of10\'','\'B5of10\''
'\'(0.173091-0.220128]\'','\'B1of9\'','\'B11of13\'','\'B1of7\'',Intermittent,'\'B5of10\'','\'B5of10\''
'\'(0.408273-0.45531]\'','\'B8of9\'','\'B11of13\'','\'B5of7\'',Continuous,'\'B5of10\'','\'B5of10\''
'\'(-inf-0.173091]\'','\'B1of9\'','\'B11of13\'','\'B3of7\'',Intermittent,'\'B8of10\'','\'B5of10\''
'\'(0.173091-0.220128]\'','\'B1of9\'','\'B11of13\'','\'B1of7\'',Intermittent,'\'B4of10\'','\'B5of10\''
'\'(-inf-0.173091]\'','\'B8of9\'','\'B11of13\'','\'B5of7\'',Continuous,'\'B7of10\'','\'B6of10\''
'\'(0.408273-0.45531]\'','\'B8of9\'','\'B11of13\'','\'B5of7\'',Continuous,'\'B7of10\'','\'B5of10\''
'\'(0.220128-0.267164]\'','\'B8of9\'','\'B11of13\'','\'B5of7\'',Continuous,'\'B5of10\'','\'B5of10\''
'\'(0.3142-0.361237]\'','\'B8of9\'','\'B11of13\'','\'B5of7\'',Continuous,'\'B8of10\'','\'B5of10\''
'\'(0.173091-0.220128]\'','\'B1of9\'','\'B11of13\'','\'B2of7\'',Intermittent,'\'B7of10\'','\'B5of10\''
'\'(0.173091-0.220128]\'','\'B9of9\'','\'B11of13\'','\'B5of7\'',Continuous,'\'B5of10\'','\'B5of10\''
'\'(0.173091-0.220128]\'','\'B1of9\'','\'B11of13\'','\'B1of7\'',Intermittent,'\'B7of10\'','\'B5of10\''
'\'(0.3142-0.361237]\'','\'B1of9\'','\'B11of13\'','\'B2of7\'',Intermittent,'\'B5of10\'','\'B5of10\''
'\'(0.267164-0.3142]\'','\'B1of9\'','\'B11of13\'','\'B1of7\'',Intermittent,'\'B5of10\'','\'B5of10\''
'\'(0.45531-0.502346]\'','\'B1of9\'','\'B11of13\'','\'B1of7\'',Intermittent,'\'B5of10\'','\'B5of10\''
'\'(0.502346-0.549383]\'','\'B9of9\'','\'B11of13\'','\'B5of7\'',Continuous,'\'B5of10\'','\'B5of10\''
'\'(-inf-0.173091]\'','\'B1of9\'','\'B11of13\'','\'B1of7\'',Intermittent,'\'B8of10\'','\'B5of10\''
'\'(-inf-0.173091]\'','\'B1of9\'','\'B11of13\'','\'B1of7\'',Intermittent,'\'B5of10\'','\'B5of10\''
'\'(-inf-0.173091]\'','\'B1of9\'','\'B11of13\'','\'B4of7\'',Intermittent,'\'B7of10\'','\'B5of10\''
'\'(0.361237-0.408273]\'','\'B9of9\'','\'B11of13\'','\'B5of7\'',Continuous,'\'B7of10\'','\'B5of10\''
'\'(-inf-0.173091]\'','\'B1of9\'','\'B11of13\'','\'B1of7\'',Intermittent,'\'B5of10\'','\'B5of10\''
'\'(-inf-0.173091]\'','\'B1of9\'','\'B11of13\'','\'B1of7\'',Intermittent,'\'B8of10\'','\'B5of10\''
'\'(0.220128-0.267164]\'','\'B1of9\'','\'B11of13\'','\'B1of7\'',Intermittent,'\'B7of10\'','\'B5of10\''
'\'(0.173091-0.220128]\'','\'B9of9\'','\'B11of13\'','\'B5of7\'',Continuous,'\'B5of10\'','\'B5of10\''
'\'(0.220128-0.267164]\'','\'B1of9\'','\'B11of13\'','\'B1of7\'',Intermittent,'\'B5of10\'','\'B5of10\''
'\'(0.220128-0.267164]\'','\'B9of9\'','\'B11of13\'','\'B5of7\'',Continuous,'\'B5of10\'','\'B5of10\''
'\'(0.220128-0.267164]\'','\'B1of9\'','\'B11of13\'','\'B1of7\'',Intermittent,'\'B7of10\'','\'B5of10\''
'\'(0.408273-0.45531]\'','\'B1of9\'','\'B11of13\'','\'B2of7\'',Intermittent,'\'B7of10\'','\'B6of10\''
'\'(-inf-0.173091]\'','\'B1of9\'','\'B13of13\'','\'B5of7\'',Intermittent,'\'B9of10\'','\'B3of10\''
'\'(-inf-0.173091]\'','\'B1of9\'','\'B13of13\'','\'B5of7\'',Intermittent,'\'B10of10\'','\'B3of10\''
'\'(0.267164-0.3142]\'','\'B1of9\'','\'B13of13\'','\'B5of7\'',Intermittent,'\'B10of10\'','\'B3of10\''
'\'(0.3142-0.361237]\'','\'B1of9\'','\'B13of13\'','\'B5of7\'',Intermittent,'\'B10of10\'','\'B3of10\''
'\'(0.549383-inf)\'','\'B1of9\'','\'B13of13\'','\'B5of7\'',Intermittent,'\'B10of10\'','\'B3of10\''
'\'(-inf-0.173091]\'','\'B1of9\'','\'B13of13\'','\'B2of7\'',Intermittent,'\'B9of10\'','\'B1of10\''
'\'(-inf-0.173091]\'','\'B1of9\'','\'B13of13\'','\'B2of7\'',Intermittent,'\'B10of10\'','\'B3of10\''
'\'(0.220128-0.267164]\'','\'B1of9\'','\'B13of13\'','\'B5of7\'',Intermittent,'\'B10of10\'','\'B3of10\''
'\'(0.173091-0.220128]\'','\'B1of9\'','\'B13of13\'','\'B5of7\'',Intermittent,'\'B10of10\'','\'B3of10\''
'\'(-inf-0.173091]\'','\'B1of9\'','\'B13of13\'','\'B5of7\'',Intermittent,'\'B8of10\'','\'B3of10\''
'\'(0.173091-0.220128]\'','\'B1of9\'','\'B13of13\'','\'B3of7\'',Intermittent,'\'B7of10\'','\'B3of10\''
'\'(0.361237-0.408273]\'','\'B1of9\'','\'B13of13\'','\'B5of7\'',Intermittent,'\'B8of10\'','\'B6of10\''
'\'(0.220128-0.267164]\'','\'B1of9\'','\'B12of13\'','\'B5of7\'',Intermittent,'\'B8of10\'','\'B6of10\''
'\'(-inf-0.173091]\'','\'B9of9\'','\'B10of13\'','\'B5of7\'',Continuous,'\'B7of10\'','\'B6of10\''
'\'(0.220128-0.267164]\'','\'B1of9\'','\'B10of13\'','\'B1of7\'',Intermittent,'\'B7of10\'','\'B6of10\''
'\'(0.220128-0.267164]\'','\'B9of9\'','\'B10of13\'','\'B5of7\'',Continuous,'\'B7of10\'','\'B5of10\''
'\'(-inf-0.173091]\'','\'B1of9\'','\'B12of13\'','\'B1of7\'',Intermittent,'\'B10of10\'','\'B3of10\''
'\'(0.408273-0.45531]\'','\'B9of9\'','\'B11of13\'','\'B5of7\'',Continuous,'\'B8of10\'','\'B5of10\''
'\'(0.408273-0.45531]\'','\'B9of9\'','\'B10of13\'','\'B5of7\'',Continuous,'\'B8of10\'','\'B6of10\''
'\'(0.220128-0.267164]\'','\'B9of9\'','\'B10of13\'','\'B5of7\'',Continuous,'\'B7of10\'','\'B6of10\''
'\'(-inf-0.173091]\'','\'B1of9\'','\'B11of13\'','\'B5of7\'',Intermittent,'\'B9of10\'','\'B6of10\''
'\'(-inf-0.173091]\'','\'B1of9\'','\'B12of13\'','\'B5of7\'',Intermittent,'\'B8of10\'','\'B6of10\''
'\'(0.220128-0.267164]\'','\'B9of9\'','\'B10of13\'','\'B5of7\'',Continuous,'\'B7of10\'','\'B6of10\''
'\'(0.173091-0.220128]\'','\'B9of9\'','\'B10of13\'','\'B5of7\'',Continuous,'\'B8of10\'','\'B6of10\''
'\'(0.267164-0.3142]\'','\'B9of9\'','\'B10of13\'','\'B5of7\'',Continuous,'\'B7of10\'','\'B6of10\''
'\'(0.173091-0.220128]\'','\'B1of9\'','\'B11of13\'','\'B5of7\'',Intermittent,'\'B9of10\'','\'B5of10\''
'\'(0.173091-0.220128]\'','\'B1of9\'','\'B11of13\'','\'B5of7\'',Intermittent,'\'B9of10\'','\'B5of10\''
'\'(0.3142-0.361237]\'','\'B1of9\'','\'B10of13\'','\'B1of7\'',Intermittent,'\'B7of10\'','\'B6of10\''
'\'(0.267164-0.3142]\'','\'B1of9\'','\'B11of13\'','\'B5of7\'',Intermittent,'\'B7of10\'','\'B5of10\''
'\'(0.267164-0.3142]\'','\'B1of9\'','\'B10of13\'','\'B1of7\'',Intermittent,'\'B5of10\'','\'B6of10\''
'\'(-inf-0.173091]\'','\'B1of9\'','\'B10of13\'','\'B1of7\'',Intermittent,'\'B8of10\'','\'B6of10\''
'\'(0.267164-0.3142]\'','\'B1of9\'','\'B11of13\'','\'B5of7\'',Intermittent,'\'B9of10\'','\'B5of10\''
'\'(0.267164-0.3142]\'','\'B1of9\'','\'B10of13\'','\'B1of7\'',Intermittent,'\'B4of10\'','\'B3of10\''
'\'(0.361237-0.408273]\'','\'B1of9\'','\'B11of13\'','\'B5of7\'',Intermittent,'\'B9of10\'','\'B5of10\''
'\'(0.502346-0.549383]\'','\'B1of9\'','\'B11of13\'','\'B5of7\'',Intermittent,'\'B9of10\'','\'B5of10\''
'\'(0.408273-0.45531]\'','\'B1of9\'','\'B11of13\'','\'B5of7\'',Intermittent,'\'B9of10\'','\'B5of10\''
'\'(0.267164-0.3142]\'','\'B1of9\'','\'B11of13\'','\'B2of7\'',Intermittent,'\'B8of10\'','\'B5of10\''
'\'(0.361237-0.408273]\'','\'B1of9\'','\'B11of13\'','\'B5of7\'',Intermittent,'\'B9of10\'','\'B5of10\''
'\'(0.3142-0.361237]\'','\'B1of9\'','\'B10of13\'','\'B1of7\'',Intermittent,'\'B5of10\'','\'B6of10\''
'\'(-inf-0.173091]\'','\'B9of9\'','\'B10of13\'','\'B5of7\'',Continuous,'\'B5of10\'','\'B6of10\''
'\'(0.220128-0.267164]\'','\'B9of9\'','\'B10of13\'','\'B5of7\'',Continuous,'\'B5of10\'','\'B8of10\''
'\'(0.267164-0.3142]\'','\'B9of9\'','\'B10of13\'','\'B5of7\'',Continuous,'\'B5of10\'','\'B8of10\''
'\'(0.173091-0.220128]\'','\'B1of9\'','\'B10of13\'','\'B2of7\'',Intermittent,'\'B7of10\'','\'B8of10\''
'\'(0.173091-0.220128]\'','\'B9of9\'','\'B10of13\'','\'B5of7\'',Continuous,'\'B7of10\'','\'B8of10\''
'\'(0.220128-0.267164]\'','\'B1of9\'','\'B10of13\'','\'B1of7\'',Intermittent,'\'B7of10\'','\'B6of10\''
'\'(0.408273-0.45531]\'','\'B9of9\'','\'B10of13\'','\'B5of7\'',Continuous,'\'B5of10\'','\'B6of10\''
'\'(0.3142-0.361237]\'','\'B1of9\'','\'B10of13\'','\'B1of7\'',Intermittent,'\'B5of10\'','\'B5of10\''
'\'(-inf-0.173091]\'','\'B1of9\'','\'B10of13\'','\'B1of7\'',Intermittent,'\'B7of10\'','\'B8of10\''
'\'(0.361237-0.408273]\'','\'B9of9\'','\'B10of13\'','\'B5of7\'',Continuous,'\'B5of10\'','\'B8of10\''
'\'(0.3142-0.361237]\'','\'B1of9\'','\'B10of13\'','\'B4of7\'',Intermittent,'\'B5of10\'','\'B8of10\''
'\'(0.361237-0.408273]\'','\'B1of9\'','\'B10of13\'','\'B1of7\'',Intermittent,'\'B5of10\'','\'B6of10\''
'\'(0.3142-0.361237]\'','\'B9of9\'','\'B10of13\'','\'B6of7\'',Intermittent,'\'B7of10\'','\'B6of10\''
'\'(0.267164-0.3142]\'','\'B1of9\'','\'B10of13\'','\'B1of7\'',Intermittent,'\'B7of10\'','\'B8of10\''
'\'(0.173091-0.220128]\'','\'B9of9\'','\'B10of13\'','\'B6of7\'',Intermittent,'\'B7of10\'','\'B8of10\''
'\'(0.220128-0.267164]\'','\'B9of9\'','\'B10of13\'','\'B6of7\'',Intermittent,'\'B7of10\'','\'B8of10\''
'\'(-inf-0.173091]\'','\'B9of9\'','\'B10of13\'','\'B6of7\'',Intermittent,'\'B7of10\'','\'B8of10\''
'\'(0.173091-0.220128]\'','\'B1of9\'','\'B10of13\'','\'B4of7\'',Intermittent,'\'B7of10\'','\'B6of10\''
'\'(-inf-0.173091]\'','\'B9of9\'','\'B10of13\'','\'B6of7\'',Intermittent,'\'B7of10\'','\'B6of10\''
'\'(-inf-0.173091]\'','\'B9of9\'','\'B10of13\'','\'B6of7\'',Intermittent,'\'B7of10\'','\'B6of10\''
'\'(-inf-0.173091]\'','\'B9of9\'','\'B10of13\'','\'B6of7\'',Intermittent,'\'B7of10\'','\'B6of10\''
'\'(-inf-0.173091]\'','\'B9of9\'','\'B10of13\'','\'B6of7\'',Intermittent,'\'B8of10\'','\'B6of10\''
'\'(-inf-0.173091]\'','\'B9of9\'','\'B10of13\'','\'B6of7\'',Intermittent,'\'B8of10\'','\'B6of10\''
'\'(0.220128-0.267164]\'','\'B9of9\'','\'B10of13\'','\'B6of7\'',Intermittent,'\'B8of10\'','\'B6of10\''
'\'(0.220128-0.267164]\'','\'B9of9\'','\'B9of13\'','\'B6of7\'',Intermittent,'\'B8of10\'','\'B6of10\''
'\'(0.267164-0.3142]\'','\'B1of9\'','\'B10of13\'','\'B2of7\'',Intermittent,'\'B8of10\'','\'B6of10\''
'\'(-inf-0.173091]\'','\'B9of9\'','\'B10of13\'','\'B6of7\'',Intermittent,'\'B7of10\'','\'B6of10\''
'\'(0.220128-0.267164]\'','\'B9of9\'','\'B9of13\'','\'B6of7\'',Intermittent,'\'B7of10\'','\'B6of10\''
'\'(0.3142-0.361237]\'','\'B9of9\'','\'B9of13\'','\'B6of7\'',Intermittent,'\'B8of10\'','\'B6of10\''
'\'(0.173091-0.220128]\'','\'B9of9\'','\'B9of13\'','\'B6of7\'',Intermittent,'\'B8of10\'','\'B6of10\''
'\'(0.361237-0.408273]\'','\'B9of9\'','\'B9of13\'','\'B6of7\'',Intermittent,'\'B8of10\'','\'B6of10\''
'\'(0.173091-0.220128]\'','\'B9of9\'','\'B9of13\'','\'B6of7\'',Intermittent,'\'B8of10\'','\'B6of10\''
'\'(0.220128-0.267164]\'','\'B9of9\'','\'B9of13\'','\'B6of7\'',Intermittent,'\'B8of10\'','\'B5of10\''
'\'(0.173091-0.220128]\'','\'B1of9\'','\'B9of13\'','\'B3of7\'',Intermittent,'\'B8of10\'','\'B6of10\''
'\'(-inf-0.173091]\'','\'B1of9\'','\'B9of13\'','\'B3of7\'',Intermittent,'\'B7of10\'','\'B6of10\''
'\'(-inf-0.173091]\'','\'B1of9\'','\'B10of13\'','\'B3of7\'',Intermittent,'\'B8of10\'','\'B6of10\''
'\'(0.267164-0.3142]\'','\'B9of9\'','\'B9of13\'','\'B6of7\'',Intermittent,'\'B8of10\'','\'B8of10\''
'\'(0.408273-0.45531]\'','\'B9of9\'','\'B9of13\'','\'B6of7\'',Intermittent,'\'B7of10\'','\'B6of10\''
'\'(0.220128-0.267164]\'','\'B9of9\'','\'B9of13\'','\'B6of7\'',Intermittent,'\'B5of10\'','\'B6of10\''
'\'(0.45531-0.502346]\'','\'B1of9\'','\'B9of13\'','\'B2of7\'',Intermittent,'\'B8of10\'','\'B8of10\''
'\'(-inf-0.173091]\'','\'B1of9\'','\'B9of13\'','\'B4of7\'',Intermittent,'\'B3of10\'','\'B3of10\''
'\'(0.408273-0.45531]\'','\'B9of9\'','\'B9of13\'','\'B6of7\'',Intermittent,'\'B7of10\'','\'B6of10\''
'\'(0.408273-0.45531]\'','\'B9of9\'','\'B9of13\'','\'B6of7\'',Intermittent,'\'B5of10\'','\'B6of10\''
'\'(0.220128-0.267164]\'','\'B9of9\'','\'B9of13\'','\'B6of7\'',Intermittent,'\'B7of10\'','\'B8of10\''
'\'(0.3142-0.361237]\'','\'B1of9\'','\'B9of13\'','\'B4of7\'',Intermittent,'\'B5of10\'','\'B6of10\''
'\'(-inf-0.173091]\'','\'B1of9\'','\'B9of13\'','\'B4of7\'',Intermittent,'\'B7of10\'','\'B8of10\''
'\'(0.361237-0.408273]\'','\'B1of9\'','\'B9of13\'','\'B4of7\'',Intermittent,'\'B5of10\'','\'B6of10\''
'\'(0.361237-0.408273]\'','\'B1of9\'','\'B9of13\'','\'B4of7\'',Intermittent,'\'B7of10\'','\'B6of10\''
'\'(-inf-0.173091]\'','\'B1of9\'','\'B9of13\'','\'B1of7\'',Intermittent,'\'B4of10\'','\'B6of10\''
'\'(0.267164-0.3142]\'','\'B8of9\'','\'B9of13\'','\'B6of7\'',Intermittent,'\'B7of10\'','\'B6of10\''
'\'(0.3142-0.361237]\'','\'B1of9\'','\'B9of13\'','\'B4of7\'',Intermittent,'\'B7of10\'','\'B6of10\''
'\'(0.220128-0.267164]\'','\'B8of9\'','\'B9of13\'','\'B6of7\'',Intermittent,'\'B7of10\'','\'B6of10\''
'\'(-inf-0.173091]\'','\'B8of9\'','\'B9of13\'','\'B6of7\'',Intermittent,'\'B4of10\'','\'B5of10\''
'\'(0.267164-0.3142]\'','\'B8of9\'','\'B9of13\'','\'B6of7\'',Intermittent,'\'B8of10\'','\'B6of10\''
'\'(0.267164-0.3142]\'','\'B8of9\'','\'B9of13\'','\'B6of7\'',Intermittent,'\'B8of10\'','\'B6of10\''
'\'(0.3142-0.361237]\'','\'B8of9\'','\'B9of13\'','\'B6of7\'',Intermittent,'\'B8of10\'','\'B6of10\''
'\'(0.173091-0.220128]\'','\'B8of9\'','\'B9of13\'','\'B6of7\'',Intermittent,'\'B7of10\'','\'B6of10\''
'\'(0.408273-0.45531]\'','\'B8of9\'','\'B9of13\'','\'B6of7\'',Intermittent,'\'B8of10\'','\'B6of10\''
'\'(0.408273-0.45531]\'','\'B1of9\'','\'B9of13\'','\'B1of7\'',Intermittent,'\'B8of10\'','\'B6of10\''
'\'(0.3142-0.361237]\'','\'B1of9\'','\'B9of13\'','\'B1of7\'',Intermittent,'\'B4of10\'','\'B5of10\''
'\'(0.361237-0.408273]\'','\'B8of9\'','\'B9of13\'','\'B6of7\'',Intermittent,'\'B7of10\'','\'B6of10\''
'\'(0.220128-0.267164]\'','\'B8of9\'','\'B9of13\'','\'B6of7\'',Intermittent,'\'B8of10\'','\'B6of10\''
'\'(-inf-0.173091]\'','\'B8of9\'','\'B9of13\'','\'B6of7\'',Intermittent,'\'B8of10\'','\'B6of10\''
'\'(-inf-0.173091]\'','\'B1of9\'','\'B9of13\'','\'B2of7\'',Intermittent,'\'B8of10\'','\'B6of10\''
'\'(0.173091-0.220128]\'','\'B1of9\'','\'B9of13\'','\'B1of7\'',Intermittent,'\'B7of10\'','\'B6of10\''
'\'(-inf-0.173091]\'','\'B1of9\'','\'B9of13\'','\'B1of7\'',Intermittent,'\'B7of10\'','\'B6of10\''
'\'(0.173091-0.220128]\'','\'B8of9\'','\'B9of13\'','\'B6of7\'',Intermittent,'\'B8of10\'','\'B6of10\''
'\'(0.220128-0.267164]\'','\'B8of9\'','\'B9of13\'','\'B6of7\'',Intermittent,'\'B9of10\'','\'B6of10\''
'\'(0.220128-0.267164]\'','\'B1of9\'','\'B9of13\'','\'B1of7\'',Intermittent,'\'B7of10\'','\'B5of10\''
'\'(0.361237-0.408273]\'','\'B1of9\'','\'B9of13\'','\'B1of7\'',Intermittent,'\'B10of10\'','\'B6of10\''
'\'(0.220128-0.267164]\'','\'B8of9\'','\'B9of13\'','\'B6of7\'',Intermittent,'\'B10of10\'','\'B6of10\''
'\'(0.361237-0.408273]\'','\'B8of9\'','\'B9of13\'','\'B6of7\'',Intermittent,'\'B10of10\'','\'B6of10\''
'\'(0.173091-0.220128]\'','\'B1of9\'','\'B9of13\'','\'B1of7\'',Intermittent,'\'B10of10\'','\'B6of10\''
'\'(0.361237-0.408273]\'','\'B8of9\'','\'B9of13\'','\'B6of7\'',Intermittent,'\'B10of10\'','\'B6of10\''
'\'(0.361237-0.408273]\'','\'B8of9\'','\'B9of13\'','\'B6of7\'',Intermittent,'\'B10of10\'','\'B5of10\''
'\'(0.267164-0.3142]\'','\'B1of9\'','\'B9of13\'','\'B1of7\'',Intermittent,'\'B10of10\'','\'B6of10\''
'\'(0.3142-0.361237]\'','\'B1of9\'','\'B9of13\'','\'B6of7\'',Intermittent,'\'B10of10\'','\'B5of10\''
'\'(0.267164-0.3142]\'','\'B8of9\'','\'B9of13\'','\'B6of7\'',Intermittent,'\'B10of10\'','\'B6of10\''
'\'(0.3142-0.361237]\'','\'B1of9\'','\'B9of13\'','\'B5of7\'',Intermittent,'\'B10of10\'','\'B5of10\''
'\'(0.220128-0.267164]\'','\'B1of9\'','\'B9of13\'','\'B5of7\'',Intermittent,'\'B10of10\'','\'B6of10\''
'\'(0.220128-0.267164]\'','\'B1of9\'','\'B8of13\'','\'B5of7\'',Intermittent,'\'B10of10\'','\'B5of10\''
'\'(0.361237-0.408273]\'','\'B1of9\'','\'B9of13\'','\'B5of7\'',Intermittent,'\'B10of10\'','\'B6of10\''
'\'(0.361237-0.408273]\'','\'B1of9\'','\'B9of13\'','\'B5of7\'',Intermittent,'\'B10of10\'','\'B6of10\''
'\'(0.220128-0.267164]\'','\'B1of9\'','\'B9of13\'','\'B5of7\'',Intermittent,'\'B9of10\'','\'B6of10\''
'\'(0.3142-0.361237]\'','\'B1of9\'','\'B9of13\'','\'B5of7\'',Intermittent,'\'B9of10\'','\'B6of10\''
'\'(0.361237-0.408273]\'','\'B1of9\'','\'B8of13\'','\'B5of7\'',Intermittent,'\'B9of10\'','\'B6of10\''
'\'(0.220128-0.267164]\'','\'B1of9\'','\'B9of13\'','\'B5of7\'',Intermittent,'\'B10of10\'','\'B6of10\''
'\'(0.267164-0.3142]\'','\'B1of9\'','\'B8of13\'','\'B5of7\'',Intermittent,'\'B9of10\'','\'B6of10\''
'\'(0.267164-0.3142]\'','\'B1of9\'','\'B8of13\'','\'B5of7\'',Intermittent,'\'B9of10\'','\'B5of10\''
'\'(0.3142-0.361237]\'','\'B1of9\'','\'B8of13\'','\'B5of7\'',Intermittent,'\'B10of10\'','\'B5of10\''
'\'(0.267164-0.3142]\'','\'B1of9\'','\'B8of13\'','\'B5of7\'',Intermittent,'\'B9of10\'','\'B6of10\''
'\'(-inf-0.173091]\'','\'B1of9\'','\'B8of13\'','\'B5of7\'',Intermittent,'\'B9of10\'','\'B6of10\''
'\'(0.361237-0.408273]\'','\'B8of9\'','\'B8of13\'','\'B6of7\'',Intermittent,'\'B10of10\'','\'B5of10\''
'\'(0.220128-0.267164]\'','\'B1of9\'','\'B8of13\'','\'B1of7\'',Intermittent,'\'B10of10\'','\'B5of10\''
'\'(0.3142-0.361237]\'','\'B7of9\'','\'B8of13\'','\'B6of7\'',Intermittent,'\'B10of10\'','\'B5of10\''
'\'(-inf-0.173091]\'','\'B1of9\'','\'B8of13\'','\'B5of7\'',Intermittent,'\'B10of10\'','\'B5of10\''
'\'(0.267164-0.3142]\'','\'B7of9\'','\'B8of13\'','\'B6of7\'',Intermittent,'\'B10of10\'','\'B5of10\''
'\'(0.3142-0.361237]\'','\'B1of9\'','\'B8of13\'','\'B4of7\'',Intermittent,'\'B10of10\'','\'B5of10\''
'\'(0.408273-0.45531]\'','\'B7of9\'','\'B8of13\'','\'B6of7\'',Intermittent,'\'B10of10\'','\'B5of10\''
'\'(0.267164-0.3142]\'','\'B1of9\'','\'B8of13\'','\'B1of7\'',Intermittent,'\'B10of10\'','\'B5of10\''
'\'(0.220128-0.267164]\'','\'B7of9\'','\'B8of13\'','\'B6of7\'',Intermittent,'\'B10of10\'','\'B5of10\''
'\'(-inf-0.173091]\'','\'B1of9\'','\'B8of13\'','\'B1of7\'',Intermittent,'\'B10of10\'','\'B5of10\''
'\'(0.173091-0.220128]\'','\'B1of9\'','\'B8of13\'','\'B1of7\'',Intermittent,'\'B10of10\'','\'B5of10\''
'\'(0.220128-0.267164]\'','\'B1of9\'','\'B8of13\'','\'B1of7\'',Intermittent,'\'B10of10\'','\'B5of10\''
'\'(-inf-0.173091]\'','\'B1of9\'','\'B8of13\'','\'B1of7\'',Intermittent,'\'B10of10\'','\'B5of10\''
'\'(0.173091-0.220128]\'','\'B7of9\'','\'B8of13\'','\'B6of7\'',Intermittent,'\'B10of10\'','\'B5of10\''
'\'(0.173091-0.220128]\'','\'B1of9\'','\'B8of13\'','\'B1of7\'',Intermittent,'\'B10of10\'','\'B5of10\''
'\'(-inf-0.173091]\'','\'B1of9\'','\'B8of13\'','\'B1of7\'',Intermittent,'\'B10of10\'','\'B5of10\''
'\'(-inf-0.173091]\'','\'B7of9\'','\'B8of13\'','\'B6of7\'',Intermittent,'\'B10of10\'','\'B3of10\''
'\'(0.361237-0.408273]\'','\'B1of9\'','\'B8of13\'','\'B1of7\'',Intermittent,'\'B10of10\'','\'B5of10\''
'\'(0.361237-0.408273]\'','\'B1of9\'','\'B8of13\'','\'B1of7\'',Intermittent,'\'B9of10\'','\'B2of10\''
'\'(0.3142-0.361237]\'','\'B1of9\'','\'B8of13\'','\'B1of7\'',Intermittent,'\'B10of10\'','\'B5of10\''
'\'(0.267164-0.3142]\'','\'B1of9\'','\'B8of13\'','\'B1of7\'',Intermittent,'\'B10of10\'','\'B5of10\''
'\'(0.267164-0.3142]\'','\'B1of9\'','\'B8of13\'','\'B1of7\'',Intermittent,'\'B10of10\'','\'B5of10\''
'\'(0.173091-0.220128]\'','\'B7of9\'','\'B8of13\'','\'B6of7\'',Intermittent,'\'B10of10\'','\'B6of10\''
'\'(0.3142-0.361237]\'','\'B1of9\'','\'B8of13\'','\'B3of7\'',Intermittent,'\'B10of10\'','\'B6of10\''
'\'(0.267164-0.3142]\'','\'B7of9\'','\'B8of13\'','\'B6of7\'',Intermittent,'\'B9of10\'','\'B6of10\''
'\'(-inf-0.173091]\'','\'B1of9\'','\'B8of13\'','\'B3of7\'',Intermittent,'\'B9of10\'','\'B6of10\''
'\'(0.220128-0.267164]\'','\'B7of9\'','\'B8of13\'','\'B6of7\'',Intermittent,'\'B8of10\'','\'B6of10\''
'\'(0.267164-0.3142]\'','\'B7of9\'','\'B8of13\'','\'B6of7\'',Intermittent,'\'B9of10\'','\'B6of10\''
'\'(-inf-0.173091]\'','\'B7of9\'','\'B8of13\'','\'B6of7\'',Intermittent,'\'B9of10\'','\'B6of10\''
'\'(0.173091-0.220128]\'','\'B6of9\'','\'B8of13\'','\'B6of7\'',Intermittent,'\'B7of10\'','\'B8of10\''
'\'(-inf-0.173091]\'','\'B6of9\'','\'B8of13\'','\'B6of7\'',Intermittent,'\'B5of10\'','\'B8of10\''
'\'(-inf-0.173091]\'','\'B6of9\'','\'B8of13\'','\'B6of7\'',Intermittent,'\'B7of10\'','\'B8of10\''
'\'(-inf-0.173091]\'','\'B1of9\'','\'B8of13\'','\'B1of7\'',Intermittent,'\'B5of10\'','\'B6of10\''
'\'(0.173091-0.220128]\'','\'B6of9\'','\'B8of13\'','\'B6of7\'',Intermittent,'\'B5of10\'','\'B8of10\''
'\'(0.173091-0.220128]\'','\'B1of9\'','\'B8of13\'','\'B1of7\'',Intermittent,'\'B5of10\'','\'B5of10\''
'\'(-inf-0.173091]\'','\'B6of9\'','\'B8of13\'','\'B6of7\'',Intermittent,'\'B7of10\'','\'B8of10\''
'\'(0.361237-0.408273]\'','\'B1of9\'','\'B8of13\'','\'B1of7\'',Intermittent,'\'B5of10\'','\'B6of10\''
'\'(-inf-0.173091]\'','\'B1of9\'','\'B8of13\'','\'B1of7\'',Intermittent,'\'B5of10\'','\'B8of10\''
'\'(0.173091-0.220128]\'','\'B6of9\'','\'B8of13\'','\'B6of7\'',Intermittent,'\'B7of10\'','\'B8of10\''
'\'(0.267164-0.3142]\'','\'B6of9\'','\'B8of13\'','\'B6of7\'',Intermittent,'\'B5of10\'','\'B8of10\''
'\'(0.220128-0.267164]\'','\'B6of9\'','\'B8of13\'','\'B6of7\'',Intermittent,'\'B5of10\'','\'B8of10\''
'\'(0.220128-0.267164]\'','\'B1of9\'','\'B7of13\'','\'B3of7\'',Intermittent,'\'B5of10\'','\'B6of10\''
'\'(-inf-0.173091]\'','\'B6of9\'','\'B8of13\'','\'B6of7\'',Intermittent,'\'B7of10\'','\'B8of10\''
'\'(0.173091-0.220128]\'','\'B1of9\'','\'B7of13\'','\'B2of7\'',Intermittent,'\'B5of10\'','\'B6of10\''
'\'(0.220128-0.267164]\'','\'B1of9\'','\'B7of13\'','\'B2of7\'',Intermittent,'\'B5of10\'','\'B6of10\''
'\'(-inf-0.173091]\'','\'B6of9\'','\'B8of13\'','\'B6of7\'',Intermittent,'\'B5of10\'','\'B6of10\''
'\'(0.361237-0.408273]\'','\'B1of9\'','\'B7of13\'','\'B2of7\'',Intermittent,'\'B5of10\'','\'B6of10\''
'\'(0.267164-0.3142]\'','\'B6of9\'','\'B8of13\'','\'B6of7\'',Intermittent,'\'B5of10\'','\'B8of10\''
'\'(0.361237-0.408273]\'','\'B6of9\'','\'B7of13\'','\'B6of7\'',Intermittent,'\'B7of10\'','\'B8of10\''
'\'(0.220128-0.267164]\'','\'B6of9\'','\'B7of13\'','\'B6of7\'',Intermittent,'\'B8of10\'','\'B8of10\''
'\'(-inf-0.173091]\'','\'B6of9\'','\'B7of13\'','\'B6of7\'',Intermittent,'\'B7of10\'','\'B6of10\''
'\'(0.408273-0.45531]\'','\'B1of9\'','\'B8of13\'','\'B2of7\'',Intermittent,'\'B7of10\'','\'B8of10\''
'\'(0.173091-0.220128]\'','\'B6of9\'','\'B8of13\'','\'B6of7\'',Intermittent,'\'B7of10\'','\'B8of10\''
'\'(0.361237-0.408273]\'','\'B6of9\'','\'B7of13\'','\'B6of7\'',Intermittent,'\'B7of10\'','\'B9of10\''
'\'(0.267164-0.3142]\'','\'B1of9\'','\'B7of13\'','\'B1of7\'',Intermittent,'\'B5of10\'','\'B8of10\''
'\'(-inf-0.173091]\'','\'B6of9\'','\'B8of13\'','\'B6of7\'',Intermittent,'\'B7of10\'','\'B8of10\''
'\'(0.408273-0.45531]\'','\'B6of9\'','\'B7of13\'','\'B6of7\'',Intermittent,'\'B5of10\'','\'B8of10\''
'\'(-inf-0.173091]\'','\'B1of9\'','\'B7of13\'','\'B1of7\'',Intermittent,'\'B7of10\'','\'B6of10\''
'\'(0.173091-0.220128]\'','\'B6of9\'','\'B7of13\'','\'B6of7\'',Intermittent,'\'B7of10\'','\'B9of10\''
'\'(0.361237-0.408273]\'','\'B1of9\'','\'B7of13\'','\'B1of7\'',Intermittent,'\'B5of10\'','\'B8of10\''
'\'(0.45531-0.502346]\'','\'B1of9\'','\'B7of13\'','\'B1of7\'',Intermittent,'\'B9of10\'','\'B8of10\''
'\'(0.408273-0.45531]\'','\'B1of9\'','\'B7of13\'','\'B1of7\'',Intermittent,'\'B9of10\'','\'B8of10\''
'\'(0.3142-0.361237]\'','\'B1of9\'','\'B7of13\'','\'B1of7\'',Intermittent,'\'B7of10\'','\'B8of10\''
'\'(0.173091-0.220128]\'','\'B1of9\'','\'B7of13\'','\'B1of7\'',Intermittent,'\'B8of10\'','\'B9of10\''
'\'(0.173091-0.220128]\'','\'B6of9\'','\'B7of13\'','\'B6of7\'',Intermittent,'\'B5of10\'','\'B8of10\''
'\'(0.361237-0.408273]\'','\'B6of9\'','\'B7of13\'','\'B6of7\'',Intermittent,'\'B5of10\'','\'B9of10\''
'\'(0.220128-0.267164]\'','\'B1of9\'','\'B7of13\'','\'B1of7\'',Intermittent,'\'B4of10\'','\'B9of10\''
'\'(0.267164-0.3142]\'','\'B6of9\'','\'B7of13\'','\'B6of7\'',Intermittent,'\'B5of10\'','\'B9of10\''
'\'(-inf-0.173091]\'','\'B6of9\'','\'B7of13\'','\'B6of7\'',Intermittent,'\'B7of10\'','\'B8of10\''
'\'(0.408273-0.45531]\'','\'B6of9\'','\'B7of13\'','\'B6of7\'',Intermittent,'\'B7of10\'','\'B9of10\''
'\'(0.267164-0.3142]\'','\'B6of9\'','\'B7of13\'','\'B6of7\'',Intermittent,'\'B7of10\'','\'B8of10\''
'\'(-inf-0.173091]\'','\'B1of9\'','\'B7of13\'','\'B1of7\'',Intermittent,'\'B7of10\'','\'B9of10\''
'\'(0.267164-0.3142]\'','\'B1of9\'','\'B9of13\'','\'B5of7\'',Intermittent,'\'B5of10\'','\'B9of10\''
'\'(0.3142-0.361237]\'','\'B5of9\'','\'B7of13\'','\'B6of7\'',Intermittent,'\'B5of10\'','\'B9of10\''
'\'(0.173091-0.220128]\'','\'B1of9\'','\'B7of13\'','\'B1of7\'',Intermittent,'\'B5of10\'','\'B9of10\''
'\'(0.173091-0.220128]\'','\'B5of9\'','\'B7of13\'','\'B6of7\'',Intermittent,'\'B5of10\'','\'B9of10\''
'\'(0.220128-0.267164]\'','\'B1of9\'','\'B8of13\'','\'B5of7\'',Intermittent,'\'B7of10\'','\'B9of10\''
'\'(0.173091-0.220128]\'','\'B5of9\'','\'B7of13\'','\'B6of7\'',Intermittent,'\'B7of10\'','\'B9of10\''
'\'(0.220128-0.267164]\'','\'B5of9\'','\'B7of13\'','\'B6of7\'',Intermittent,'\'B7of10\'','\'B9of10\''
'\'(0.267164-0.3142]\'','\'B1of9\'','\'B8of13\'','\'B2of7\'',Intermittent,'\'B5of10\'','\'B9of10\''
'\'(0.267164-0.3142]\'','\'B1of9\'','\'B7of13\'','\'B1of7\'',Intermittent,'\'B5of10\'','\'B9of10\''
'\'(-inf-0.173091]\'','\'B5of9\'','\'B7of13\'','\'B6of7\'',Intermittent,'\'B8of10\'','\'B9of10\''
'\'(-inf-0.173091]\'','\'B1of9\'','\'B8of13\'','\'B5of7\'',Intermittent,'\'B5of10\'','\'B9of10\''
'\'(0.267164-0.3142]\'','\'B1of9\'','\'B7of13\'','\'B1of7\'',Intermittent,'\'B7of10\'','\'B9of10\''
'\'(0.173091-0.220128]\'','\'B5of9\'','\'B8of13\'','\'B6of7\'',Intermittent,'\'B8of10\'','\'B9of10\''
'\'(-inf-0.173091]\'','\'B1of9\'','\'B7of13\'','\'B1of7\'',Intermittent,'\'B8of10\'','\'B9of10\''
'\'(0.173091-0.220128]\'','\'B5of9\'','\'B7of13\'','\'B6of7\'',Intermittent,'\'B7of10\'','\'B9of10\''
'\'(0.267164-0.3142]\'','\'B5of9\'','\'B7of13\'','\'B6of7\'',Intermittent,'\'B7of10\'','\'B9of10\''
'\'(0.408273-0.45531]\'','\'B5of9\'','\'B7of13\'','\'B6of7\'',Intermittent,'\'B7of10\'','\'B9of10\''
'\'(0.3142-0.361237]\'','\'B5of9\'','\'B6of13\'','\'B6of7\'',Intermittent,'\'B7of10\'','\'B8of10\''
'\'(0.267164-0.3142]\'','\'B1of9\'','\'B7of13\'','\'B1of7\'',Intermittent,'\'B7of10\'','\'B9of10\''
'\'(0.361237-0.408273]\'','\'B5of9\'','\'B7of13\'','\'B6of7\'',Intermittent,'\'B5of10\'','\'B8of10\''
'\'(0.3142-0.361237]\'','\'B5of9\'','\'B7of13\'','\'B6of7\'',Intermittent,'\'B8of10\'','\'B9of10\''
'\'(0.173091-0.220128]\'','\'B1of9\'','\'B7of13\'','\'B1of7\'',Intermittent,'\'B7of10\'','\'B9of10\''
'\'(-inf-0.173091]\'','\'B5of9\'','\'B7of13\'','\'B6of7\'',Intermittent,'\'B7of10\'','\'B8of10\''
'\'(0.3142-0.361237]\'','\'B5of9\'','\'B6of13\'','\'B6of7\'',Intermittent,'\'B8of10\'','\'B9of10\''
'\'(-inf-0.173091]\'','\'B1of9\'','\'B6of13\'','\'B2of7\'',Intermittent,'\'B8of10\'','\'B9of10\''
'\'(0.267164-0.3142]\'','\'B1of9\'','\'B7of13\'','\'B1of7\'',Intermittent,'\'B8of10\'','\'B9of10\''
'\'(0.173091-0.220128]\'','\'B1of9\'','\'B6of13\'','\'B1of7\'',Intermittent,'\'B8of10\'','\'B9of10\''
'\'(-inf-0.173091]\'','\'B1of9\'','\'B6of13\'','\'B5of7\'',Intermittent,'\'B8of10\'','\'B9of10\''
'\'(0.267164-0.3142]\'','\'B1of9\'','\'B6of13\'','\'B1of7\'',Intermittent,'\'B8of10\'','\'B9of10\''
'\'(0.173091-0.220128]\'','\'B5of9\'','\'B6of13\'','\'B6of7\'',Intermittent,'\'B8of10\'','\'B9of10\''
'\'(0.220128-0.267164]\'','\'B1of9\'','\'B6of13\'','\'B5of7\'',Intermittent,'\'B5of10\'','\'B9of10\''
'\'(0.173091-0.220128]\'','\'B5of9\'','\'B6of13\'','\'B6of7\'',Intermittent,'\'B8of10\'','\'B9of10\''
'\'(-inf-0.173091]\'','\'B5of9\'','\'B6of13\'','\'B6of7\'',Intermittent,'\'B8of10\'','\'B8of10\''
'\'(0.361237-0.408273]\'','\'B5of9\'','\'B6of13\'','\'B6of7\'',Intermittent,'\'B8of10\'','\'B9of10\''
'\'(0.173091-0.220128]\'','\'B5of9\'','\'B6of13\'','\'B6of7\'',Intermittent,'\'B8of10\'','\'B9of10\''
'\'(0.502346-0.549383]\'','\'B1of9\'','\'B6of13\'','\'B1of7\'',Intermittent,'\'B7of10\'','\'B9of10\''
'\'(0.220128-0.267164]\'','\'B5of9\'','\'B6of13\'','\'B6of7\'',Intermittent,'\'B8of10\'','\'B9of10\''
'\'(0.361237-0.408273]\'','\'B1of9\'','\'B6of13\'','\'B1of7\'',Intermittent,'\'B7of10\'','\'B9of10\''
'\'(0.220128-0.267164]\'','\'B1of9\'','\'B6of13\'','\'B1of7\'',Intermittent,'\'B7of10\'','\'B9of10\''
'\'(0.173091-0.220128]\'','\'B1of9\'','\'B8of13\'','\'B1of7\'',Intermittent,'\'B5of10\'','\'B9of10\''
'\'(0.3142-0.361237]\'','\'B5of9\'','\'B6of13\'','\'B6of7\'',Intermittent,'\'B8of10\'','\'B9of10\''
'\'(0.408273-0.45531]\'','\'B5of9\'','\'B6of13\'','\'B6of7\'',Intermittent,'\'B8of10\'','\'B9of10\''
'\'(0.45531-0.502346]\'','\'B1of9\'','\'B6of13\'','\'B1of7\'',Intermittent,'\'B8of10\'','\'B9of10\''
'\'(0.267164-0.3142]\'','\'B5of9\'','\'B6of13\'','\'B6of7\'',Intermittent,'\'B7of10\'','\'B9of10\''
'\'(0.173091-0.220128]\'','\'B1of9\'','\'B11of13\'','\'B4of7\'',Intermittent,'\'B5of10\'','\'B8of10\''
'\'(0.361237-0.408273]\'','\'B5of9\'','\'B6of13\'','\'B6of7\'',Intermittent,'\'B8of10\'','\'B8of10\''
'\'(0.408273-0.45531]\'','\'B1of9\'','\'B6of13\'','\'B4of7\'',Intermittent,'\'B7of10\'','\'B9of10\''
'\'(0.45531-0.502346]\'','\'B5of9\'','\'B6of13\'','\'B6of7\'',Intermittent,'\'B8of10\'','\'B9of10\''
'\'(0.45531-0.502346]\'','\'B1of9\'','\'B6of13\'','\'B1of7\'',Intermittent,'\'B7of10\'','\'B9of10\''
'\'(0.173091-0.220128]\'','\'B1of9\'','\'B6of13\'','\'B2of7\'',Intermittent,'\'B7of10\'','\'B9of10\''
'\'(0.220128-0.267164]\'','\'B5of9\'','\'B5of13\'','\'B6of7\'',Intermittent,'\'B9of10\'','\'B9of10\''
'\'(-inf-0.173091]\'','\'B1of9\'','\'B6of13\'','\'B1of7\'',Intermittent,'\'B5of10\'','\'B9of10\''
'\'(0.267164-0.3142]\'','\'B5of9\'','\'B5of13\'','\'B6of7\'',Intermittent,'\'B7of10\'','\'B9of10\''
'\'(0.267164-0.3142]\'','\'B5of9\'','\'B5of13\'','\'B6of7\'',Intermittent,'\'B8of10\'','\'B9of10\''
'\'(0.361237-0.408273]\'','\'B5of9\'','\'B5of13\'','\'B6of7\'',Intermittent,'\'B8of10\'','\'B8of10\''
'\'(0.173091-0.220128]\'','\'B5of9\'','\'B5of13\'','\'B6of7\'',Intermittent,'\'B8of10\'','\'B8of10\''
'\'(-inf-0.173091]\'','\'B1of9\'','\'B5of13\'','\'B1of7\'',Intermittent,'\'B7of10\'','\'B9of10\''
'\'(0.3142-0.361237]\'','\'B5of9\'','\'B5of13\'','\'B6of7\'',Intermittent,'\'B8of10\'','\'B8of10\''
'\'(0.220128-0.267164]\'','\'B1of9\'','\'B5of13\'','\'B1of7\'',Intermittent,'\'B8of10\'','\'B9of10\''
'\'(0.220128-0.267164]\'','\'B1of9\'','\'B5of13\'','\'B1of7\'',Intermittent,'\'B8of10\'','\'B8of10\''
'\'(0.3142-0.361237]\'','\'B5of9\'','\'B5of13\'','\'B6of7\'',Intermittent,'\'B8of10\'','\'B8of10\''
'\'(0.173091-0.220128]\'','\'B5of9\'','\'B4of13\'','\'B6of7\'',Intermittent,'\'B8of10\'','\'B9of10\''
'\'(-inf-0.173091]\'','\'B1of9\'','\'B5of13\'','\'B3of7\'',Intermittent,'\'B5of10\'','\'B8of10\''
'\'(-inf-0.173091]\'','\'B5of9\'','\'B4of13\'','\'B6of7\'',Intermittent,'\'B7of10\'','\'B9of10\''
'\'(0.361237-0.408273]\'','\'B5of9\'','\'B5of13\'','\'B6of7\'',Intermittent,'\'B8of10\'','\'B9of10\''
'\'(0.408273-0.45531]\'','\'B1of9\'','\'B5of13\'','\'B1of7\'',Intermittent,'\'B8of10\'','\'B8of10\''
'\'(0.3142-0.361237]\'','\'B5of9\'','\'B4of13\'','\'B6of7\'',Intermittent,'\'B10of10\'','\'B9of10\''
'\'(0.267164-0.3142]\'','\'B1of9\'','\'B4of13\'','\'B1of7\'',Intermittent,'\'B10of10\'','\'B9of10\''
'\'(0.3142-0.361237]\'','\'B5of9\'','\'B4of13\'','\'B6of7\'',Intermittent,'\'B10of10\'','\'B9of10\''
'\'(0.408273-0.45531]\'','\'B5of9\'','\'B4of13\'','\'B6of7\'',Intermittent,'\'B10of10\'','\'B8of10\''
'\'(0.408273-0.45531]\'','\'B5of9\'','\'B4of13\'','\'B6of7\'',Intermittent,'\'B10of10\'','\'B9of10\''
'\'(-inf-0.173091]\'','\'B5of9\'','\'B4of13\'','\'B6of7\'',Intermittent,'\'B10of10\'','\'B9of10\''
'\'(-inf-0.173091]\'','\'B1of9\'','\'B4of13\'','\'B1of7\'',Intermittent,'\'B9of10\'','\'B9of10\''
'\'(-inf-0.173091]\'','\'B1of9\'','\'B4of13\'','\'B1of7\'',Intermittent,'\'B9of10\'','\'B8of10\''
'\'(0.220128-0.267164]\'','\'B1of9\'','\'B4of13\'','\'B3of7\'',Intermittent,'\'B9of10\'','\'B9of10\''
'\'(-inf-0.173091]\'','\'B5of9\'','\'B4of13\'','\'B6of7\'',Intermittent,'\'B9of10\'','\'B8of10\''
'\'(0.361237-0.408273]\'','\'B5of9\'','\'B4of13\'','\'B6of7\'',Intermittent,'\'B9of10\'','\'B9of10\''
'\'(0.220128-0.267164]\'','\'B5of9\'','\'B4of13\'','\'B6of7\'',Intermittent,'\'B9of10\'','\'B9of10\''
'\'(0.267164-0.3142]\'','\'B1of9\'','\'B4of13\'','\'B1of7\'',Intermittent,'\'B9of10\'','\'B9of10\''
'\'(-inf-0.173091]\'','\'B1of9\'','\'B4of13\'','\'B4of7\'',Intermittent,'\'B10of10\'','\'B9of10\''
'\'(0.3142-0.361237]\'','\'B5of9\'','\'B4of13\'','\'B6of7\'',Intermittent,'\'B10of10\'','\'B9of10\''
'\'(0.173091-0.220128]\'','\'B5of9\'','\'B4of13\'','\'B6of7\'',Intermittent,'\'B10of10\'','\'B9of10\''
'\'(0.3142-0.361237]\'','\'B1of9\'','\'B4of13\'','\'B2of7\'',Intermittent,'\'B9of10\'','\'B9of10\''
'\'(0.267164-0.3142]\'','\'B1of9\'','\'B4of13\'','\'B2of7\'',Intermittent,'\'B9of10\'','\'B9of10\''
'\'(0.3142-0.361237]\'','\'B1of9\'','\'B4of13\'','\'B2of7\'',Intermittent,'\'B9of10\'','\'B9of10\''
'\'(-inf-0.173091]\'','\'B1of9\'','\'B4of13\'','\'B2of7\'',Intermittent,'\'B10of10\'','\'B9of10\''
'\'(0.45531-0.502346]\'','\'B5of9\'','\'B4of13\'','\'B6of7\'',Intermittent,'\'B8of10\'','\'B9of10\''
'\'(0.173091-0.220128]\'','\'B5of9\'','\'B4of13\'','\'B6of7\'',Intermittent,'\'B10of10\'','\'B9of10\''
'\'(0.173091-0.220128]\'','\'B1of9\'','\'B4of13\'','\'B3of7\'',Intermittent,'\'B9of10\'','\'B9of10\''
'\'(0.45531-0.502346]\'','\'B1of9\'','\'B4of13\'','\'B3of7\'',Intermittent,'\'B9of10\'','\'B9of10\''
'\'(0.408273-0.45531]\'','\'B5of9\'','\'B4of13\'','\'B6of7\'',Intermittent,'\'B8of10\'','\'B9of10\''
'\'(-inf-0.173091]\'','\'B5of9\'','\'B4of13\'','\'B6of7\'',Intermittent,'\'B9of10\'','\'B9of10\''
'\'(0.45531-0.502346]\'','\'B5of9\'','\'B4of13\'','\'B6of7\'',Intermittent,'\'B9of10\'','\'B9of10\''
'\'(0.3142-0.361237]\'','\'B5of9\'','\'B4of13\'','\'B6of7\'',Intermittent,'\'B9of10\'','\'B9of10\''
'\'(-inf-0.173091]\'','\'B5of9\'','\'B4of13\'','\'B6of7\'',Intermittent,'\'B8of10\'','\'B9of10\''
'\'(0.45531-0.502346]\'','\'B5of9\'','\'B4of13\'','\'B6of7\'',Intermittent,'\'B9of10\'','\'B9of10\''
'\'(0.3142-0.361237]\'','\'B5of9\'','\'B4of13\'','\'B6of7\'',Intermittent,'\'B9of10\'','\'B9of10\''
'\'(0.361237-0.408273]\'','\'B5of9\'','\'B4of13\'','\'B6of7\'',Intermittent,'\'B9of10\'','\'B9of10\''
'\'(0.408273-0.45531]\'','\'B1of9\'','\'B4of13\'','\'B2of7\'',Intermittent,'\'B9of10\'','\'B9of10\''
'\'(0.3142-0.361237]\'','\'B1of9\'','\'B4of13\'','\'B1of7\'',Intermittent,'\'B9of10\'','\'B9of10\''
'\'(0.173091-0.220128]\'','\'B1of9\'','\'B12of13\'','\'B1of7\'',Intermittent,'\'B4of10\'','\'B9of10\''
'\'(0.3142-0.361237]\'','\'B1of9\'','\'B3of13\'','\'B3of7\'',Intermittent,'\'B9of10\'','\'B9of10\''
'\'(0.361237-0.408273]\'','\'B1of9\'','\'B4of13\'','\'B2of7\'',Intermittent,'\'B9of10\'','\'B9of10\''
'\'(-inf-0.173091]\'','\'B1of9\'','\'B4of13\'','\'B1of7\'',Intermittent,'\'B8of10\'','\'B9of10\''
'\'(0.267164-0.3142]\'','\'B5of9\'','\'B3of13\'','\'B6of7\'',Intermittent,'\'B8of10\'','\'B8of10\''
'\'(0.3142-0.361237]\'','\'B5of9\'','\'B3of13\'','\'B6of7\'',Intermittent,'\'B9of10\'','\'B9of10\''
'\'(0.3142-0.361237]\'','\'B5of9\'','\'B3of13\'','\'B6of7\'',Intermittent,'\'B9of10\'','\'B9of10\''
'\'(0.45531-0.502346]\'','\'B5of9\'','\'B3of13\'','\'B6of7\'',Intermittent,'\'B9of10\'','\'B9of10\''
'\'(-inf-0.173091]\'','\'B1of9\'','\'B3of13\'','\'B2of7\'',Intermittent,'\'B9of10\'','\'B9of10\''
'\'(0.3142-0.361237]\'','\'B1of9\'','\'B3of13\'','\'B1of7\'',Intermittent,'\'B9of10\'','\'B9of10\''
'\'(0.408273-0.45531]\'','\'B5of9\'','\'B3of13\'','\'B6of7\'',Intermittent,'\'B9of10\'','\'B9of10\''
'\'(0.361237-0.408273]\'','\'B5of9\'','\'B3of13\'','\'B6of7\'',Intermittent,'\'B9of10\'','\'B9of10\''
'\'(0.3142-0.361237]\'','\'B1of9\'','\'B3of13\'','\'B1of7\'',Intermittent,'\'B9of10\'','\'B9of10\''
'\'(0.173091-0.220128]\'','\'B1of9\'','\'B12of13\'','\'B2of7\'',Intermittent,'\'B5of10\'','\'B9of10\''
'\'(0.267164-0.3142]\'','\'B5of9\'','\'B3of13\'','\'B6of7\'',Intermittent,'\'B9of10\'','\'B8of10\''
'\'(-inf-0.173091]\'','\'B5of9\'','\'B3of13\'','\'B6of7\'',Intermittent,'\'B9of10\'','\'B9of10\''
'\'(0.45531-0.502346]\'','\'B5of9\'','\'B3of13\'','\'B6of7\'',Intermittent,'\'B9of10\'','\'B9of10\''
'\'(0.45531-0.502346]\'','\'B1of9\'','\'B3of13\'','\'B1of7\'',Intermittent,'\'B8of10\'','\'B8of10\''
'\'(0.173091-0.220128]\'','\'B1of9\'','\'B12of13\'','\'B3of7\'',Intermittent,'\'B5of10\'','\'B9of10\''
'\'(0.220128-0.267164]\'','\'B1of9\'','\'B12of13\'','\'B1of7\'',Intermittent,'\'B1of10\'','\'B3of10\''
'\'(-inf-0.173091]\'','\'B1of9\'','\'B3of13\'','\'B2of7\'',Intermittent,'\'B9of10\'','\'B9of10\''
'\'(0.173091-0.220128]\'','\'B1of9\'','\'B4of13\'','\'B1of7\'',Intermittent,'\'B8of10\'','\'B9of10\''
'\'(0.173091-0.220128]\'','\'B1of9\'','\'B12of13\'','\'B5of7\'',Intermittent,'\'B4of10\'','\'B6of10\''
'\'(-inf-0.173091]\'','\'B1of9\'','\'B12of13\'','\'B1of7\'',Intermittent,'\'B5of10\'','\'B9of10\''
'\'(-inf-0.173091]\'','\'B1of9\'','\'B3of13\'','\'B4of7\'',Intermittent,'\'B9of10\'','\'B9of10\''
'\'(0.408273-0.45531]\'','\'B1of9\'','\'B3of13\'','\'B1of7\'',Intermittent,'\'B8of10\'','\'B9of10\''
'\'(-inf-0.173091]\'','\'B1of9\'','\'B12of13\'','\'B1of7\'',Intermittent,'\'B4of10\'','\'B8of10\''
'\'(0.267164-0.3142]\'','\'B1of9\'','\'B3of13\'','\'B4of7\'',Intermittent,'\'B8of10\'','\'B8of10\''
'\'(0.408273-0.45531]\'','\'B1of9\'','\'B3of13\'','\'B4of7\'',Intermittent,'\'B8of10\'','\'B9of10\''
'\'(0.220128-0.267164]\'','\'B1of9\'','\'B11of13\'','\'B1of7\'',Intermittent,'\'B4of10\'','\'B8of10\''
'\'(0.45531-0.502346]\'','\'B1of9\'','\'B3of13\'','\'B4of7\'',Intermittent,'\'B9of10\'','\'B9of10\''
'\'(-inf-0.173091]\'','\'B1of9\'','\'B3of13\'','\'B2of7\'',Intermittent,'\'B10of10\'','\'B9of10\''
'\'(0.502346-0.549383]\'','\'B5of9\'','\'B3of13\'','\'B6of7\'',Intermittent,'\'B10of10\'','\'B8of10\''
'\'(0.408273-0.45531]\'','\'B5of9\'','\'B3of13\'','\'B6of7\'',Intermittent,'\'B9of10\'','\'B8of10\''
'\'(0.361237-0.408273]\'','\'B5of9\'','\'B3of13\'','\'B6of7\'',Intermittent,'\'B10of10\'','\'B8of10\''
'\'(0.502346-0.549383]\'','\'B5of9\'','\'B3of13\'','\'B6of7\'',Intermittent,'\'B10of10\'','\'B8of10\''
'\'(0.173091-0.220128]\'','\'B5of9\'','\'B3of13\'','\'B6of7\'',Intermittent,'\'B10of10\'','\'B8of10\''
'\'(0.45531-0.502346]\'','\'B1of9\'','\'B3of13\'','\'B1of7\'',Intermittent,'\'B10of10\'','\'B9of10\''
'\'(0.220128-0.267164]\'','\'B5of9\'','\'B3of13\'','\'B6of7\'',Intermittent,'\'B9of10\'','\'B9of10\''
'\'(0.173091-0.220128]\'','\'B5of9\'','\'B3of13\'','\'B6of7\'',Intermittent,'\'B10of10\'','\'B9of10\''
'\'(0.173091-0.220128]\'','\'B1of9\'','\'B3of13\'','\'B3of7\'',Intermittent,'\'B9of10\'','\'B9of10\''
'\'(0.408273-0.45531]\'','\'B5of9\'','\'B3of13\'','\'B6of7\'',Intermittent,'\'B10of10\'','\'B9of10\''
'\'(0.173091-0.220128]\'','\'B5of9\'','\'B3of13\'','\'B6of7\'',Intermittent,'\'B10of10\'','\'B9of10\''
'\'(0.173091-0.220128]\'','\'B5of9\'','\'B3of13\'','\'B6of7\'',Intermittent,'\'B10of10\'','\'B8of10\''
'\'(0.3142-0.361237]\'','\'B5of9\'','\'B3of13\'','\'B6of7\'',Intermittent,'\'B10of10\'','\'B9of10\''
'\'(0.173091-0.220128]\'','\'B5of9\'','\'B3of13\'','\'B6of7\'',Intermittent,'\'B10of10\'','\'B9of10\''
'\'(0.45531-0.502346]\'','\'B5of9\'','\'B3of13\'','\'B6of7\'',Intermittent,'\'B10of10\'','\'B9of10\''
'\'(0.173091-0.220128]\'','\'B1of9\'','\'B11of13\'','\'B1of7\'',Intermittent,'\'B4of10\'','\'B8of10\''
'\'(-inf-0.173091]\'','\'B5of9\'','\'B3of13\'','\'B6of7\'',Intermittent,'\'B10of10\'','\'B8of10\''
'\'(0.502346-0.549383]\'','\'B1of9\'','\'B3of13\'','\'B1of7\'',Intermittent,'\'B10of10\'','\'B9of10\''
'\'(0.173091-0.220128]\'','\'B1of9\'','\'B11of13\'','\'B4of7\'',Intermittent,'\'B4of10\'','\'B9of10\''
'\'(0.408273-0.45531]\'','\'B1of9\'','\'B3of13\'','\'B1of7\'',Intermittent,'\'B10of10\'','\'B8of10\''
'\'(-inf-0.173091]\'','\'B1of9\'','\'B11of13\'','\'B4of7\'',Intermittent,'\'B5of10\'','\'B9of10\''
'\'(-inf-0.173091]\'','\'B1of9\'','\'B11of13\'','\'B1of7\'',Intermittent,'\'B4of10\'','\'B8of10\''
'\'(0.45531-0.502346]\'','\'B5of9\'','\'B3of13\'','\'B6of7\'',Intermittent,'\'B10of10\'','\'B9of10\''
'\'(0.267164-0.3142]\'','\'B1of9\'','\'B3of13\'','\'B1of7\'',Intermittent,'\'B10of10\'','\'B9of10\''
'\'(0.3142-0.361237]\'','\'B1of9\'','\'B3of13\'','\'B2of7\'',Intermittent,'\'B10of10\'','\'B9of10\''
'\'(0.361237-0.408273]\'','\'B1of9\'','\'B3of13\'','\'B2of7\'',Intermittent,'\'B10of10\'','\'B9of10\''
'\'(0.3142-0.361237]\'','\'B1of9\'','\'B10of13\'','\'B2of7\'',Intermittent,'\'B5of10\'','\'B9of10\''
'\'(0.361237-0.408273]\'','\'B1of9\'','\'B3of13\'','\'B2of7\'',Intermittent,'\'B10of10\'','\'B9of10\''
'\'(0.45531-0.502346]\'','\'B1of9\'','\'B3of13\'','\'B2of7\'',Intermittent,'\'B10of10\'','\'B9of10\''
'\'(0.173091-0.220128]\'','\'B1of9\'','\'B3of13\'','\'B1of7\'',Intermittent,'\'B9of10\'','\'B9of10\''
'\'(0.3142-0.361237]\'','\'B1of9\'','\'B10of13\'','\'B6of7\'',Intermittent,'\'B5of10\'','\'B10of10\''
'\'(-inf-0.173091]\'','\'B1of9\'','\'B10of13\'','\'B2of7\'',Intermittent,'\'B4of10\'','\'B9of10\''
'\'(-inf-0.173091]\'','\'B5of9\'','\'B3of13\'','\'B6of7\'',Intermittent,'\'B10of10\'','\'B9of10\''
'\'(0.3142-0.361237]\'','\'B1of9\'','\'B3of13\'','\'B1of7\'',Intermittent,'\'B10of10\'','\'B9of10\''
'\'(0.173091-0.220128]\'','\'B1of9\'','\'B2of13\'','\'B1of7\'',Intermittent,'\'B10of10\'','\'B9of10\''
'\'(-inf-0.173091]\'','\'B1of9\'','\'B10of13\'','\'B6of7\'',Intermittent,'\'B5of10\'','\'B8of10\''
'\'(-inf-0.173091]\'','\'B1of9\'','\'B10of13\'','\'B6of7\'',Intermittent,'\'B5of10\'','\'B9of10\''
'\'(0.220128-0.267164]\'','\'B1of9\'','\'B2of13\'','\'B1of7\'',Intermittent,'\'B10of10\'','\'B9of10\''
'\'(0.267164-0.3142]\'','\'B5of9\'','\'B3of13\'','\'B6of7\'',Intermittent,'\'B10of10\'','\'B9of10\''
'\'(0.173091-0.220128]\'','\'B1of9\'','\'B9of13\'','\'B2of7\'',Intermittent,'\'B5of10\'','\'B10of10\''
'\'(0.3142-0.361237]\'','\'B1of9\'','\'B2of13\'','\'B1of7\'',Intermittent,'\'B10of10\'','\'B9of10\''
'\'(0.173091-0.220128]\'','\'B1of9\'','\'B3of13\'','\'B1of7\'',Intermittent,'\'B10of10\'','\'B9of10\''
'\'(0.220128-0.267164]\'','\'B1of9\'','\'B10of13\'','\'B6of7\'',Intermittent,'\'B5of10\'','\'B9of10\''
'\'(0.361237-0.408273]\'','\'B1of9\'','\'B9of13\'','\'B2of7\'',Intermittent,'\'B5of10\'','\'B9of10\''
'\'(0.220128-0.267164]\'','\'B5of9\'','\'B3of13\'','\'B6of7\'',Intermittent,'\'B10of10\'','\'B9of10\''
'\'(0.361237-0.408273]\'','\'B1of9\'','\'B2of13\'','\'B1of7\'',Intermittent,'\'B10of10\'','\'B9of10\''
'\'(0.173091-0.220128]\'','\'B1of9\'','\'B9of13\'','\'B3of7\'',Intermittent,'\'B5of10\'','\'B9of10\''
'\'(-inf-0.173091]\'','\'B1of9\'','\'B9of13\'','\'B1of7\'',Intermittent,'\'B5of10\'','\'B9of10\''
'\'(-inf-0.173091]\'','\'B1of9\'','\'B9of13\'','\'B1of7\'',Intermittent,'\'B4of10\'','\'B8of10\''
'\'(0.3142-0.361237]\'','\'B1of9\'','\'B2of13\'','\'B4of7\'',Intermittent,'\'B10of10\'','\'B9of10\''
'\'(0.267164-0.3142]\'','\'B1of9\'','\'B2of13\'','\'B1of7\'',Intermittent,'\'B10of10\'','\'B9of10\''
'\'(0.361237-0.408273]\'','\'B1of9\'','\'B9of13\'','\'B6of7\'',Intermittent,'\'B4of10\'','\'B8of10\''
'\'(0.361237-0.408273]\'','\'B5of9\'','\'B2of13\'','\'B6of7\'',Intermittent,'\'B10of10\'','\'B9of10\''
'\'(0.502346-0.549383]\'','\'B5of9\'','\'B2of13\'','\'B6of7\'',Intermittent,'\'B10of10\'','\'B9of10\''
'\'(0.361237-0.408273]\'','\'B1of9\'','\'B9of13\'','\'B6of7\'',Intermittent,'\'B5of10\'','\'B8of10\''
'\'(0.267164-0.3142]\'','\'B5of9\'','\'B2of13\'','\'B6of7\'',Intermittent,'\'B10of10\'','\'B9of10\''
'\'(0.173091-0.220128]\'','\'B1of9\'','\'B2of13\'','\'B2of7\'',Intermittent,'\'B10of10\'','\'B9of10\''
'\'(0.408273-0.45531]\'','\'B1of9\'','\'B2of13\'','\'B1of7\'',Intermittent,'\'B9of10\'','\'B9of10\''
'\'(0.408273-0.45531]\'','\'B1of9\'','\'B9of13\'','\'B1of7\'',Intermittent,'\'B5of10\'','\'B8of10\''
'\'(0.361237-0.408273]\'','\'B5of9\'','\'B2of13\'','\'B6of7\'',Intermittent,'\'B9of10\'','\'B9of10\''
'\'(0.173091-0.220128]\'','\'B1of9\'','\'B9of13\'','\'B1of7\'',Intermittent,'\'B2of10\'','\'B5of10\''
'\'(0.267164-0.3142]\'','\'B5of9\'','\'B2of13\'','\'B6of7\'',Intermittent,'\'B10of10\'','\'B9of10\''
'\'(-inf-0.173091]\'','\'B1of9\'','\'B8of13\'','\'B6of7\'',Intermittent,'\'B5of10\'','\'B9of10\''
'\'(-inf-0.173091]\'','\'B1of9\'','\'B9of13\'','\'B1of7\'',Intermittent,'\'B5of10\'','\'B9of10\''
'\'(0.173091-0.220128]\'','\'B5of9\'','\'B2of13\'','\'B6of7\'',Intermittent,'\'B10of10\'','\'B9of10\''
'\'(0.3142-0.361237]\'','\'B5of9\'','\'B2of13\'','\'B6of7\'',Intermittent,'\'B10of10\'','\'B9of10\''
'\'(0.408273-0.45531]\'','\'B1of9\'','\'B2of13\'','\'B1of7\'',Intermittent,'\'B10of10\'','\'B9of10\''
'\'(0.3142-0.361237]\'','\'B1of9\'','\'B8of13\'','\'B6of7\'',Intermittent,'\'B4of10\'','\'B6of10\''
'\'(-inf-0.173091]\'','\'B1of9\'','\'B8of13\'','\'B6of7\'',Intermittent,'\'B5of10\'','\'B9of10\''
'\'(-inf-0.173091]\'','\'B1of9\'','\'B2of13\'','\'B1of7\'',Intermittent,'\'B10of10\'','\'B9of10\''
'\'(0.361237-0.408273]\'','\'B1of9\'','\'B2of13\'','\'B1of7\'',Intermittent,'\'B10of10\'','\'B9of10\''
'\'(0.45531-0.502346]\'','\'B5of9\'','\'B2of13\'','\'B6of7\'',Intermittent,'\'B10of10\'','\'B9of10\''
'\'(-inf-0.173091]\'','\'B1of9\'','\'B8of13\'','\'B6of7\'',Intermittent,'\'B5of10\'','\'B9of10\''
'\'(-inf-0.173091]\'','\'B1of9\'','\'B8of13\'','\'B1of7\'',Intermittent,'\'B5of10\'','\'B8of10\''
'\'(-inf-0.173091]\'','\'B5of9\'','\'B2of13\'','\'B6of7\'',Intermittent,'\'B10of10\'','\'B9of10\''
'\'(0.408273-0.45531]\'','\'B1of9\'','\'B2of13\'','\'B3of7\'',Intermittent,'\'B10of10\'','\'B9of10\''
'\'(0.220128-0.267164]\'','\'B1of9\'','\'B8of13\'','\'B6of7\'',Intermittent,'\'B5of10\'','\'B9of10\''
'\'(0.408273-0.45531]\'','\'B5of9\'','\'B2of13\'','\'B6of7\'',Intermittent,'\'B10of10\'','\'B9of10\''
'\'(0.408273-0.45531]\'','\'B1of9\'','\'B2of13\'','\'B1of7\'',Intermittent,'\'B10of10\'','\'B9of10\''
'\'(0.3142-0.361237]\'','\'B1of9\'','\'B2of13\'','\'B1of7\'',Intermittent,'\'B10of10\'','\'B9of10\''
'\'(0.408273-0.45531]\'','\'B4of9\'','\'B2of13\'','\'B6of7\'',Intermittent,'\'B10of10\'','\'B9of10\''
'\'(0.45531-0.502346]\'','\'B1of9\'','\'B2of13\'','\'B1of7\'',Intermittent,'\'B10of10\'','\'B9of10\''
'\'(-inf-0.173091]\'','\'B1of9\'','\'B8of13\'','\'B1of7\'',Intermittent,'\'B5of10\'','\'B8of10\''
'\'(-inf-0.173091]\'','\'B2of9\'','\'B8of13\'','\'B6of7\'',Intermittent,'\'B4of10\'','\'B8of10\''
'\'(0.3142-0.361237]\'','\'B7of9\'','\'B2of13\'','\'B7of7\'',Intermittent,'\'B10of10\'','\'B9of10\''
'\'(0.361237-0.408273]\'','\'B1of9\'','\'B2of13\'','\'B1of7\'',Intermittent,'\'B9of10\'','\'B8of10\''
'\'(0.173091-0.220128]\'','\'B1of9\'','\'B2of13\'','\'B1of7\'',Intermittent,'\'B10of10\'','\'B9of10\''
'\'(-inf-0.173091]\'','\'B1of9\'','\'B2of13\'','\'B1of7\'',Intermittent,'\'B10of10\'','\'B9of10\''
'\'(0.3142-0.361237]\'','\'B1of9\'','\'B2of13\'','\'B1of7\'',Intermittent,'\'B9of10\'','\'B9of10\''
'\'(0.173091-0.220128]\'','\'B1of9\'','\'B2of13\'','\'B1of7\'',Intermittent,'\'B9of10\'','\'B9of10\''
'\'(0.361237-0.408273]\'','\'B3of9\'','\'B3of13\'','\'B6of7\'',Continuous,'\'B8of10\'','\'B9of10\''
'\'(0.3142-0.361237]\'','\'B3of9\'','\'B3of13\'','\'B6of7\'',Continuous,'\'B8of10\'','\'B9of10\''
'\'(-inf-0.173091]\'','\'B2of9\'','\'B8of13\'','\'B6of7\'',Intermittent,'\'B5of10\'','\'B8of10\''
'\'(0.408273-0.45531]\'','\'B7of9\'','\'B2of13\'','\'B7of7\'',Intermittent,'\'B10of10\'','\'B9of10\''
'\'(0.361237-0.408273]\'','\'B1of9\'','\'B2of13\'','\'B1of7\'',Intermittent,'\'B10of10\'','\'B9of10\''
'\'(0.220128-0.267164]\'','\'B3of9\'','\'B3of13\'','\'B6of7\'',Continuous,'\'B8of10\'','\'B9of10\''
'\'(0.3142-0.361237]\'','\'B7of9\'','\'B1of13\'','\'B7of7\'',Intermittent,'\'B10of10\'','\'B9of10\''
'\'(0.173091-0.220128]\'','\'B3of9\'','\'B3of13\'','\'B6of7\'',Continuous,'\'B8of10\'','\'B9of10\''
'\'(-inf-0.173091]\'','\'B2of9\'','\'B8of13\'','\'B6of7\'',Intermittent,'\'B4of10\'','\'B10of10\''
'\'(0.220128-0.267164]\'','\'B7of9\'','\'B2of13\'','\'B7of7\'',Intermittent,'\'B10of10\'','\'B9of10\''
'\'(0.45531-0.502346]\'','\'B1of9\'','\'B1of13\'','\'B7of7\'',Intermittent,'\'B10of10\'','\'B9of10\''
'\'(0.267164-0.3142]\'','\'B1of9\'','\'B1of13\'','\'B7of7\'',Intermittent,'\'B9of10\'','\'B9of10\''
'\'(0.173091-0.220128]\'','\'B2of9\'','\'B8of13\'','\'B6of7\'',Intermittent,'\'B5of10\'','\'B9of10\''
'\'(0.220128-0.267164]\'','\'B1of9\'','\'B8of13\'','\'B1of7\'',Intermittent,'\'B4of10\'','\'B9of10\''
'\'(0.361237-0.408273]\'','\'B1of9\'','\'B2of13\'','\'B7of7\'',Intermittent,'\'B10of10\'','\'B9of10\''
'\'(0.502346-0.549383]\'','\'B1of9\'','\'B1of13\'','\'B1of7\'',Intermittent,'\'B10of10\'','\'B9of10\''
'\'(0.549383-inf)\'','\'B1of9\'','\'B1of13\'','\'B1of7\'',Intermittent,'\'B10of10\'','\'B9of10\''
'\'(0.361237-0.408273]\'','\'B2of9\'','\'B3of13\'','\'B6of7\'',Continuous,'\'B8of10\'','\'B9of10\''
'\'(-inf-0.173091]\'','\'B2of9\'','\'B8of13\'','\'B6of7\'',Intermittent,'\'B4of10\'','\'B10of10\''
'\'(0.267164-0.3142]\'','\'B1of9\'','\'B1of13\'','\'B7of7\'',Intermittent,'\'B10of10\'','\'B9of10\''
'\'(0.361237-0.408273]\'','\'B2of9\'','\'B3of13\'','\'B6of7\'',Continuous,'\'B9of10\'','\'B9of10\''
'\'(0.220128-0.267164]\'','\'B2of9\'','\'B7of13\'','\'B6of7\'',Intermittent,'\'B5of10\'','\'B9of10\''
'\'(0.173091-0.220128]\'','\'B1of9\'','\'B7of13\'','\'B1of7\'',Intermittent,'\'B4of10\'','\'B9of10\''
'\'(-inf-0.173091]\'','\'B6of9\'','\'B1of13\'','\'B7of7\'',Intermittent,'\'B10of10\'','\'B8of10\''
'\'(-inf-0.173091]\'','\'B2of9\'','\'B7of13\'','\'B6of7\'',Continuous,'\'B5of10\'','\'B9of10\''
'\'(0.45531-0.502346]\'','\'B2of9\'','\'B7of13\'','\'B6of7\'',Continuous,'\'B5of10\'','\'B10of10\''
'\'(0.267164-0.3142]\'','\'B2of9\'','\'B8of13\'','\'B6of7\'',Continuous,'\'B5of10\'','\'B9of10\''
'\'(0.220128-0.267164]\'','\'B6of9\'','\'B2of13\'','\'B7of7\'',Intermittent,'\'B10of10\'','\'B8of10\''
'\'(0.173091-0.220128]\'','\'B2of9\'','\'B4of13\'','\'B6of7\'',Continuous,'\'B9of10\'','\'B9of10\''
'\'(0.220128-0.267164]\'','\'B1of9\'','\'B7of13\'','\'B3of7\'',Intermittent,'\'B5of10\'','\'B9of10\''
'\'(0.408273-0.45531]\'','\'B1of9\'','\'B7of13\'','\'B3of7\'',Intermittent,'\'B5of10\'','\'B9of10\''
'\'(0.267164-0.3142]\'','\'B1of9\'','\'B8of13\'','\'B1of7\'',Intermittent,'\'B5of10\'','\'B9of10\''
'\'(0.173091-0.220128]\'','\'B2of9\'','\'B7of13\'','\'B6of7\'',Continuous,'\'B5of10\'','\'B10of10\''
'\'(-inf-0.173091]\'','\'B1of9\'','\'B2of13\'','\'B4of7\'',Intermittent,'\'B7of10\'','\'B9of10\''
'\'(-inf-0.173091]\'','\'B1of9\'','\'B7of13\'','\'B2of7\'',Intermittent,'\'B5of10\'','\'B9of10\''
'\'(0.173091-0.220128]\'','\'B2of9\'','\'B4of13\'','\'B6of7\'',Continuous,'\'B7of10\'','\'B9of10\''
'\'(0.3142-0.361237]\'','\'B2of9\'','\'B7of13\'','\'B6of7\'',Continuous,'\'B5of10\'','\'B9of10\''
'\'(0.173091-0.220128]\'','\'B6of9\'','\'B2of13\'','\'B7of7\'',Intermittent,'\'B10of10\'','\'B9of10\''
'\'(-inf-0.173091]\'','\'B6of9\'','\'B1of13\'','\'B7of7\'',Intermittent,'\'B10of10\'','\'B9of10\''
'\'(-inf-0.173091]\'','\'B2of9\'','\'B6of13\'','\'B6of7\'',Continuous,'\'B5of10\'','\'B9of10\''
'\'(0.45531-0.502346]\'','\'B2of9\'','\'B7of13\'','\'B6of7\'',Continuous,'\'B5of10\'','\'B9of10\''
'\'(0.45531-0.502346]\'','\'B2of9\'','\'B7of13\'','\'B6of7\'',Continuous,'\'B5of10\'','\'B10of10\''
'\'(0.408273-0.45531]\'','\'B2of9\'','\'B8of13\'','\'B6of7\'',Continuous,'\'B5of10\'','\'B8of10\''
'\'(-inf-0.173091]\'','\'B2of9\'','\'B6of13\'','\'B6of7\'',Continuous,'\'B5of10\'','\'B8of10\''
'\'(0.45531-0.502346]\'','\'B2of9\'','\'B7of13\'','\'B6of7\'',Continuous,'\'B5of10\'','\'B9of10\''
'\'(0.173091-0.220128]\'','\'B1of9\'','\'B8of13\'','\'B1of7\'',Intermittent,'\'B5of10\'','\'B9of10\''
'\'(0.267164-0.3142]\'','\'B6of9\'','\'B2of13\'','\'B7of7\'',Intermittent,'\'B10of10\'','\'B9of10\''
'\'(0.267164-0.3142]\'','\'B6of9\'','\'B1of13\'','\'B7of7\'',Intermittent,'\'B10of10\'','\'B9of10\''
'\'(0.173091-0.220128]\'','\'B1of9\'','\'B1of13\'','\'B1of7\'',Intermittent,'\'B10of10\'','\'B9of10\''
'\'(-inf-0.173091]\'','\'B1of9\'','\'B7of13\'','\'B2of7\'',Intermittent,'\'B7of10\'','\'B8of10\''
'\'(-inf-0.173091]\'','\'B1of9\'','\'B8of13\'','\'B1of7\'',Intermittent,'\'B5of10\'','\'B9of10\''
'\'(-inf-0.173091]\'','\'B2of9\'','\'B6of13\'','\'B6of7\'',Continuous,'\'B5of10\'','\'B9of10\''
'\'(0.361237-0.408273]\'','\'B1of9\'','\'B6of13\'','\'B4of7\'',Intermittent,'\'B5of10\'','\'B9of10\''
'\'(0.220128-0.267164]\'','\'B2of9\'','\'B7of13\'','\'B6of7\'',Continuous,'\'B5of10\'','\'B8of10\''
'\'(0.267164-0.3142]\'','\'B6of9\'','\'B1of13\'','\'B7of7\'',Intermittent,'\'B10of10\'','\'B9of10\''
'\'(-inf-0.173091]\'','\'B1of9\'','\'B1of13\'','\'B1of7\'',Intermittent,'\'B10of10\'','\'B9of10\''
'\'(0.361237-0.408273]\'','\'B2of9\'','\'B5of13\'','\'B6of7\'',Continuous,'\'B7of10\'','\'B9of10\''
'\'(0.45531-0.502346]\'','\'B2of9\'','\'B5of13\'','\'B6of7\'',Continuous,'\'B5of10\'','\'B9of10\''
'\'(-inf-0.173091]\'','\'B2of9\'','\'B6of13\'','\'B6of7\'',Continuous,'\'B2of10\'','\'B3of10\''
'\'(0.408273-0.45531]\'','\'B1of9\'','\'B6of13\'','\'B1of7\'',Intermittent,'\'B5of10\'','\'B10of10\''
'\'(-inf-0.173091]\'','\'B1of9\'','\'B1of13\'','\'B7of7\'',Intermittent,'\'B10of10\'','\'B9of10\''
'\'(0.220128-0.267164]\'','\'B6of9\'','\'B1of13\'','\'B7of7\'',Intermittent,'\'B10of10\'','\'B9of10\''
'\'(0.267164-0.3142]\'','\'B1of9\'','\'B1of13\'','\'B1of7\'',Intermittent,'\'B10of10\'','\'B9of10\''
'\'(0.173091-0.220128]\'','\'B2of9\'','\'B6of13\'','\'B6of7\'',Continuous,'\'B7of10\'','\'B9of10\''
'\'(0.549383-inf)\'','\'B1of9\'','\'B8of13\'','\'B1of7\'',Intermittent,'\'B7of10\'','\'B9of10\''
'\'(-inf-0.173091]\'','\'B6of9\'','\'B1of13\'','\'B7of7\'',Intermittent,'\'B10of10\'','\'B9of10\''
'\'(0.267164-0.3142]\'','\'B6of9\'','\'B1of13\'','\'B7of7\'',Intermittent,'\'B10of10\'','\'B9of10\''
'\'(0.361237-0.408273]\'','\'B1of9\'','\'B1of13\'','\'B1of7\'',Intermittent,'\'B10of10\'','\'B9of10\''
'\'(0.267164-0.3142]\'','\'B1of9\'','\'B8of13\'','\'B1of7\'',Intermittent,'\'B7of10\'','\'B6of10\''
'\'(0.173091-0.220128]\'','\'B6of9\'','\'B1of13\'','\'B7of7\'',Intermittent,'\'B10of10\'','\'B9of10\''
'\'(0.267164-0.3142]\'','\'B1of9\'','\'B1of13\'','\'B1of7\'',Intermittent,'\'B10of10\'','\'B9of10\''
'\'(0.267164-0.3142]\'','\'B6of9\'','\'B1of13\'','\'B7of7\'',Intermittent,'\'B10of10\'','\'B9of10\''
'\'(0.3142-0.361237]\'','\'B1of9\'','\'B1of13\'','\'B3of7\'',Intermittent,'\'B10of10\'','\'B9of10\''
'\'(0.45531-0.502346]\'','\'B1of9\'','\'B1of13\'','\'B4of7\'',Intermittent,'\'B10of10\'','\'B9of10\''
'\'(0.220128-0.267164]\'','\'B1of9\'','\'B1of13\'','\'B4of7\'',Intermittent,'\'B10of10\'','\'B9of10\''
'\'(0.173091-0.220128]\'','\'B6of9\'','\'B1of13\'','\'B7of7\'',Intermittent,'\'B10of10\'','\'B9of10\''
'\'(0.3142-0.361237]\'','\'B1of9\'','\'B1of13\'','\'B4of7\'',Intermittent,'\'B10of10\'','\'B9of10\''
'\'(0.220128-0.267164]\'','\'B6of9\'','\'B1of13\'','\'B7of7\'',Intermittent,'\'B10of10\'','\'B8of10\''
'\'(0.361237-0.408273]\'','\'B1of9\'','\'B1of13\'','\'B4of7\'',Intermittent,'\'B10of10\'','\'B9of10\''
'\'(0.3142-0.361237]\'','\'B1of9\'','\'B1of13\'','\'B4of7\'',Intermittent,'\'B10of10\'','\'B9of10\''
'\'(0.173091-0.220128]\'','\'B1of9\'','\'B1of13\'','\'B1of7\'',Intermittent,'\'B10of10\'','\'B9of10\''
'\'(0.3142-0.361237]\'','\'B6of9\'','\'B1of13\'','\'B7of7\'',Intermittent,'\'B10of10\'','\'B9of10\''
'\'(-inf-0.173091]\'','\'B1of9\'','\'B1of13\'','\'B1of7\'',Intermittent,'\'B10of10\'','\'B9of10\''
'\'(0.267164-0.3142]\'','\'B6of9\'','\'B1of13\'','\'B7of7\'',Intermittent,'\'B10of10\'','\'B9of10\''
'\'(0.408273-0.45531]\'','\'B1of9\'','\'B1of13\'','\'B1of7\'',Intermittent,'\'B10of10\'','\'B9of10\''
'\'(0.173091-0.220128]\'','\'B6of9\'','\'B1of13\'','\'B7of7\'',Intermittent,'\'B10of10\'','\'B9of10\''
'\'(0.173091-0.220128]\'','\'B1of9\'','\'B1of13\'','\'B2of7\'',Intermittent,'\'B10of10\'','\'B9of10\''
'\'(0.267164-0.3142]\'','\'B6of9\'','\'B1of13\'','\'B7of7\'',Intermittent,'\'B9of10\'','\'B9of10\''
'\'(0.173091-0.220128]\'','\'B1of9\'','\'B1of13\'','\'B2of7\'',Intermittent,'\'B10of10\'','\'B9of10\''
'\'(0.3142-0.361237]\'','\'B6of9\'','\'B1of13\'','\'B7of7\'',Intermittent,'\'B10of10\'','\'B9of10\''
'\'(0.220128-0.267164]\'','\'B6of9\'','\'B1of13\'','\'B7of7\'',Intermittent,'\'B10of10\'','\'B9of10\''
