{
  "urn" : "local:kbagstad:usgs.swwg.experiments:SWFL_Sanpedro_BEST_May1_June30_2022_v5",
  "version" : "0.0.1",
  "adapterType" : "raster",
  "localPath" : "usgs.swwg.experiments/resources/SWFL_Sanpedro_BEST_May1_June30_2022_v5.v0.0.1",
  "geometry" : "S2(4993,2864){bbox=[-114.35733229898334 -113.01174583490071 36.432433988864965 37.20426648098046],proj=EPSG:4326}",
  "projectName" : "usgs.swwg.experiments",
  "localName" : "SWFL_Sanpedro_BEST_May1_June30_2022_v5.tif",
  "type" : "NUMBER",
  "resourceTimestamp" : 1683549765403,
  "metadata" : { },
  "parameters" : {
    "transform" : ""
  },
  "localPaths" : [ "usgs.swwg.experiments/resources/SWFL_Sanpedro_BEST_May1_June30_2022_v5.v0.0.1/SWFL_Sanpedro_BEST_May1_June30_2022_v5.tif.ovr", "usgs.swwg.experiments/resources/SWFL_Sanpedro_BEST_May1_June30_2022_v5.v0.0.1/SWFL_Sanpedro_BEST_May1_June30_2022_v5.tif" ],
  "history" : [ ],
  "notifications" : [ ],
  "attributes" : [ ],
  "spatialExtent" : {
    "east" : -113.01174583490071,
    "west" : -114.35733229898334,
    "north" : 37.20426648098046,
    "south" : 36.432433988864965,
    "gridResolution" : null,
    "gridUnit" : null
  },
  "dependencies" : null,
  "outputs" : null,
  "categorizables" : [ ],
  "codelists" : [ ],
  "availability" : null,
  "exportFormats" : {
    "zip" : "GeoTiff"
  }
}