{
  "urn" : "local:kbagstad:usgs.swwg.experiments:RHO_16m",
  "version" : "0.0.1",
  "adapterType" : "raster",
  "localPath" : "usgs.swwg.experiments/resources/RHO_16m.v0.0.1",
  "geometry" : "S2(129,116){bbox=[254250.0 267150.0 4187850.0 4199450.0],proj=EPSG:26913}",
  "projectName" : "usgs.swwg.experiments",
  "localName" : "RHO_16m.tif",
  "type" : "NUMBER",
  "resourceTimestamp" : 1663705501641,
  "metadata" : { },
  "parameters" : {
    "transform" : "",
    "nodata" : "-9999.0"
  },
  "localPaths" : [ "usgs.swwg.experiments/resources/RHO_16m.v0.0.1/RHO_16m.tfw", "usgs.swwg.experiments/resources/RHO_16m.v0.0.1/RHO_16m.tif", "usgs.swwg.experiments/resources/RHO_16m.v0.0.1/RHO_16m.tif.aux.xml", "usgs.swwg.experiments/resources/RHO_16m.v0.0.1/RHO_16m.tif.ovr" ],
  "history" : [ ],
  "notifications" : [ ],
  "attributes" : [ ],
  "spatialExtent" : {
    "east" : -107.64502669193057,
    "west" : -107.79535070984241,
    "north" : 37.91281249343086,
    "south" : 37.80499211452422,
    "gridResolution" : null,
    "gridUnit" : null
  },
  "dependencies" : null,
  "outputs" : null,
  "categorizables" : [ ],
  "codelists" : [ ],
  "availability" : null,
  "exportFormats" : {
    "zip" : "GeoTiff"
  }
}